STA 199 - AE 06: Pivoting StatSci Majors
…
Rows: Combination of year and degree type

Pivoting

Demo: Pivot the statsci data frame longer such that each row represents a degree type / year combination and year and number of graduates for that year are columns in the data frame.

statsci |>
  pivot_longer(
    cols = -degree,
    names_to = "year",
    values_to = "n"
  )

# A tibble: 52 × 3
   degree                    year      n
   <chr>                     <chr> <dbl>
 1 Statistical Science (AB2) ...1      1
 2 Statistical Science (AB2) ...2      1
 3 Statistical Science (AB2) 2011     NA
 4 Statistical Science (AB2) 2012      1
 5 Statistical Science (AB2) 2013     NA
 6 Statistical Science (AB2) 2014     NA
 7 Statistical Science (AB2) 2015      4
 8 Statistical Science (AB2) 2016      4
 9 Statistical Science (AB2) 2017      1
10 Statistical Science (AB2) 2018     NA
# … with 42 more rows
…
It’s a character (chr) variable since the information came from the columns of the original data frame and R cannot know that these character strings represent years. The variable type should be numeric.

Demo: Start over with pivoting, and this time also make sure year is a numerical variable in the resulting data frame.

statsci |>
  pivot_longer(
    cols = -degree,
    names_to = "year",
    names_transform = as.numeric,
    values_to = "n"
  )

Warning in f(names[[col]]): NAs introduced by coercion

# A tibble: 52 × 3
   degree                     year     n
   <chr>                     <dbl> <dbl>
 1 Statistical Science (AB2)    NA     1
 2 Statistical Science (AB2)    NA     1
 3 Statistical Science (AB2)  2011    NA
 4 Statistical Science (AB2)  2012     1
 5 Statistical Science (AB2)  2013    NA
 6 Statistical Science (AB2)  2014    NA
 7 Statistical Science (AB2)  2015     4
 8 Statistical Science (AB2)  2016     4
 9 Statistical Science (AB2)  2017     1
10 Statistical Science (AB2)  2018    NA
# … with 42 more rows
…
Demo: Add on to your pipeline that you started with pivoting and convert NAs in n to 0s.

statsci |>
  pivot_longer(
    cols = -degree,
    names_to = "year",
    names_transform = as.numeric,
    values_to = "n"
  ) |>
  mutate(n = if_else(is.na(n), 0, n))

Warning in f(names[[col]]): NAs introduced by coercion

# A tibble: 52 × 3
   degree                     year     n
   <chr>                     <dbl> <dbl>
 1 Statistical Science (AB2)    NA     1
 2 Statistical Science (AB2)    NA     1
 3 Statistical Science (AB2)  2011     0
 4 Statistical Science (AB2)  2012     1
 5 Statistical Science (AB2)  2013     0
 6 Statistical Science (AB2)  2014     0
 7 Statistical Science (AB2)  2015     4
 8 Statistical Science (AB2)  2016     4
 9 Statistical Science (AB2)  2017     1
10 Statistical Science (AB2)  2018     0
# … with 42 more rows
…
Warning in f(names[[col]]): NAs introduced by coercion

# A tibble: 52 × 4
   major               degree_type  year     n
   <chr>               <fct>       <dbl> <dbl>
 1 Statistical Science AB2            NA     1
 2 Statistical Science AB2            NA     1
 3 Statistical Science AB2          2011     0
 4 Statistical Science AB2          2012     1
 5 Statistical Science AB2          2013     0
 6 Statistical Science AB2          2014     0
 7 Statistical Science AB2          2015     4
 8 Statistical Science AB2          2016     4
 9 Statistical Science AB2          2017     1
10 Statistical Science AB2          2018     0
# … with 42 more rows
…
