STA 199 - The Chronicle Analysis + Functions and Iteration
…
Let’s start by loading the packages we will need:

library(tidyverse)
library(rvest)
library(lubridate)

chronicle <- read_csv("data/chronicle.csv")

Your turn (3 minutes): Who are the most prolific authors of the 100 most recent opinion articles in The Chronicle?

chronicle |> 
  count(author, sort = T)

# A tibble: 69 × 2
   author                        n
   <chr>                     <int>
 1 Anthony Salgado               3
 2 Billy Cao                     3
 3 Community Editorial Board     3
 4 Heidi Smith                   3
 5 Linda Cao                     3
 6 Luke A. Powery                3
 7 Monday Monday                 3
 8 Sonia Green                   3
 9 Viktoria Wulff-Andersen       3
10 Abdel Shehata                 2
# … with 59 more rows
…
