STA 199 - HW 2 - What should I major in?
…
Do women tend to choose majors with lower or higher earnings?

In the next section we aim to answer these questions.

Exercises

Exercise 1: Which major has the lowest unemployment rate?

In order to answer this question, we need to do is sort the data. We use the arrange function to do this, and sort it by the unemployment_rate variable. Write appropriate code and report the major(s) with the lowest unemployment rate below.

college_recent_grads |>
  arrange(unemployment_rate)

# A tibble: 173 × 21
    rank major…¹ major major…² total sampl…³   men women share…⁴ emplo…⁵ emplo…⁶
   <int>   <int> <chr> <chr>   <int>   <int> <int> <int>   <dbl>   <int>   <int>
 1    53    4005 Math… Comput…   609       7   500   109   0.179     559     584
 2    74    3801 Mili… Indust…   124       4   124     0   0           0     111
 3    84    3602 Bota… Biolog…  1329       9   626   703   0.529    1010     946
 4   113    1106 Soil… Agricu…   685       4   476   209   0.305     613     488
 5   121    2301 Educ… Educat…   804       5   280   524   0.652     703     733
 6    15    2409 Engi… Engine…  4321      30  3526   795   0.184    3608    2999
 7    20    3201 Cour… Law & …  1148      14   877   271   0.236     930     808
 8   120    2305 Math… Educat… 14237     123  3872 10365   0.728   13115   11259
 9     1    2419 Petr… Engine…  2339      36  2057   282   0.121    1976    1849
10    65    1100 Gene… Agricu… 10399     158  6053  4346   0.418    8884    7589
# … with 163 more rows, 10 more variables: employed_parttime <int>,
#   employed_fulltime_yearround <int>, unemployed <int>,
#   unemployment_rate <dbl>, p25th <dbl>, median <dbl>, p75th <dbl>,
#   college_jobs <int>, non_college_jobs <int>, low_wage_jobs <int>, and
#   abbreviated variable names ¹​major_code, ²​major_category, ³​sample_size,
#   ⁴​sharewomen, ⁵​employed, ⁶​employed_fulltime

Suggested Answer: Mathematics and Computer Science, Military Technologies, Botany, Soil Science, and Educational Administration and Supervision have the lowest unemployment rate of 0.

This output can look a little messy. Subset the data set to only include the columns rank, major, and unemployment_rate. Next, use the percent() function around the variable unemployment_rate to change decimals to a percentage.

college_recent_grads %>%
  arrange(unemployment_rate) %>%
  select(rank, major, unemployment_rate) %>%
  mutate(unemployment_rate = percent(unemployment_rate))

# A tibble: 173 × 3
    rank major                                      unemployment_rate
   <int> <chr>                                      <chr>            
 1    53 Mathematics And Computer Science           0.00000%         
 2    74 Military Technologies                      0.00000%         
 3    84 Botany                                     0.00000%         
 4   113 Soil Science                               0.00000%         
 5   121 Educational Administration And Supervision 0.00000%         
 6    15 Engineering Mechanics Physics And Science  0.63343%         
 7    20 Court Reporting                            1.16897%         
 8   120 Mathematics Teacher Education              1.62028%         
 9     1 Petroleum Engineering                      1.83805%         
10    65 General Agriculture                        1.96425%         
# … with 163 more rows

Exercise 2: Which major has the highest percentage of women?

To answer such a question we need to arrange the data in descending order. The desc function specifies that we want unemployment_rate in descending order.

college_recent_grads %>%
  arrange(desc(unemployment_rate)) %>%
  select(rank, major, unemployment_rate)

# A tibble: 173 × 3
    rank major                                      unemployment_rate
   <int> <chr>                                                  <dbl>
 1     6 Nuclear Engineering                                    0.177
 2    90 Public Administration                                  0.159
 3    85 Computer Networking And Telecommunications             0.152
 4   171 Clinical Psychology                                    0.149
 5    30 Public Policy                                          0.128
 6   106 Communication Technologies                             0.120
 7     2 Mining And Mineral Engineering                         0.117
 8    54 Computer Programming And Data Processing               0.114
 9    80 Geography                                              0.113
10    59 Architecture                                           0.113
# … with 163 more rows
…
